…
#recode to match direction of other items

green_data <- green_data %>%
  mutate(
    across(all_of(reversed),
           ~  6-.x,
           .names = "{.col}r")
  )

green_data %>% 
  select(green2, green2r)
```

    ## # A tibble: 373 x 2
    ##    green2 green2r
    ##     <dbl>   <dbl>
    ##  1      2       4
    ##  2      5       1
    ##  3      2       4
    ##  4      3       3
    ##  5      2       4
    ##  6      3       3
    ##  7      1       5
    ##  8      3       3
    ##  9      2       4
    ## 10      2       4
    ## # ... with 363 more rows
…
